"","",""
"ps2005rs_data","TXT_VALUE","EUR/mesiac a osobu"
"","",""
"","","2019"
"Domácnosti spolu","Potraviny a nealkoholické nápoje","78.96"
"Domácnosti spolu","Potraviny","72.26"
"Domácnosti spolu","Chlieb a obilniny","12.98"
"Domácnosti spolu","Mäso","19.95"
"Domácnosti spolu","Ryby","2.1"
"Domácnosti spolu","Mlieko, syry a vajcia","13.51"
"Domácnosti spolu","Oleje a tuky","3.5"
"Domácnosti spolu","Ovocie","5.21"
"Domácnosti spolu","Zelenina, vr. zemiakov","6.78"
"Domácnosti spolu","Cukor, džem, med, sirupy, čokoláda a cukrovinky","5.21"
"Domácnosti spolu","Potravinové výrobky inde nešpecifikované","3.03"
"Domácnosti spolu","Nealkoholické nápoje","6.7"
"Domácnosti spolu","Káva,  čaj a kakao","2.77"
"Domácnosti spolu","Minerálne vody, nealkoholické nápoje a šťavy","3.93"
"Domácnosti spolu","Alkoholické nápoje a tabak","10.29"
"Domácnosti spolu","Alkoholické nápoje","5.06"
"Domácnosti spolu","Tabak","5.23"
"Domácnosti spolu","Odievanie a obuv","18.08"
"Domácnosti spolu","Odievanie","12.56"
"Domácnosti spolu","Obuv","5.53"
"Domácnosti spolu","Bývanie, voda, elektrina, plyn a  palivá","70.27"
"Domácnosti spolu","Nájomné za bývanie","4.57"
"Domácnosti spolu","Pravidelná údržba obydlia","5.49"
"Domácnosti spolu","Ostatné bytové služby","16.69"
"Domácnosti spolu","Elektrina, plyn a iné palivá","43.52"
"Domácnosti spolu","Elektrina","15.21"
"Domácnosti spolu","Plyn","13.53"
"Domácnosti spolu","Palivá","4.05"
"Domácnosti spolu","Teplá voda a ústredné kúrenie","10.73"
"Domácnosti spolu","Nábytok, bytové vybavenie a bežná údržba bytu","17.84"
"Domácnosti spolu","Nábytok a bytové vybavenie","6.79"
"Domácnosti spolu","Bytové textílie","0.13"
"Domácnosti spolu","Ohrievacie a variace prístroje, chladničky, práčky a i.","3.79"
"Domácnosti spolu","Sklo, stolový riad a dom. náradie","0.27"
"Domácnosti spolu","Nástroje a zariadenie pre dom a záhradu","1.59"
"Domácnosti spolu","Tovary a služby pre bežnú údržbu domácnosti","5.27"
"Domácnosti spolu","Zdravie","11.56"
"Domácnosti spolu","Zdravotnícke a farmaceutické výrobky a terapeutické prístroje","9.37"
"Domácnosti spolu","Zdravotnícke služby poskytované mimo nemocníc","2.14"
"Domácnosti spolu","Nemocničné služby","0.05"
"Domácnosti spolu","Doprava","43.39"
"Domácnosti spolu","Nákup dopravných prostriedkov","16.64"
"Domácnosti spolu","Prevádzka prostr. osob. dopravy","20.98"
"Domácnosti spolu","Dopravné služby","5.78"
"Domácnosti spolu","Pošty a telekomunikácie","17.68"
"Domácnosti spolu","Poštové služby","0.17"
"Domácnosti spolu","Telefónne a faxové prístroje","0.08"
"Domácnosti spolu","Telefónne a faxové služby","17.43"
"Domácnosti spolu","Rekreácia a kultúra","23.5"
"Domácnosti spolu","Zariadenia a príslušenstvo vrátane opráv","6.96"
"Domácnosti spolu","Rekreačné a kultúrne služby","7.78"
"Domácnosti spolu","Noviny, knihy a kancel. potreby","2.4"
"Domácnosti spolu","Dovolenky s programom","6.38"
"Domácnosti spolu","Vzdelávanie","2.59"
"Domácnosti spolu","Hotely, kaviarne a reštaurácie","20.45"
"Domácnosti spolu","Stravovanie","17.34"
"Domácnosti spolu","Ubytovacie služby","3.11"
"Domácnosti spolu","Rozličné tovary a služby","26.31"
"Domácnosti spolu","Osobná starostlivosť","8.51"
"Domácnosti spolu","Osobné predmety","1.25"
"Domácnosti spolu","Sociálne služby","0.36"
"Domácnosti spolu","Poistenie","15.07"
"Domácnosti spolu","Fnančné služby","0.49"
"Domácnosti spolu","Iné služby","0.62"
"Domácnosti spolu","Ostatné hrubé výdavky","126.45"
"Domácnosti spolu","Daň z príjmu","34.64"
"Domácnosti spolu","Platby zdravotným poisťovniam a Sociálnej poisťovni","47.01"
"Domácnosti spolu","Spotreba potravín z vlastnej  produkcie a darov","."
"Domácnosti spolu","SPOLU","340.92"
"Domácnosti zamestnancov","Potraviny a nealkoholické nápoje","75.83"
"Domácnosti zamestnancov","Potraviny","69.31"
"Domácnosti zamestnancov","Chlieb a obilniny","12.64"
"Domácnosti zamestnancov","Mäso","19.06"
"Domácnosti zamestnancov","Ryby","2"
"Domácnosti zamestnancov","Mlieko, syry a vajcia","13.06"
"Domácnosti zamestnancov","Oleje a tuky","3.23"
"Domácnosti zamestnancov","Ovocie","4.94"
"Domácnosti zamestnancov","Zelenina, vr. zemiakov","6.41"
"Domácnosti zamestnancov","Cukor, džem, med, sirupy, čokoláda a cukrovinky","5.06"
"Domácnosti zamestnancov","Potravinové výrobky inde nešpecifikované","2.9"
"Domácnosti zamestnancov","Nealkoholické nápoje","6.52"
"Domácnosti zamestnancov","Káva,  čaj a kakao","2.57"
"Domácnosti zamestnancov","Minerálne vody, nealkoholické nápoje a šťavy","3.95"
"Domácnosti zamestnancov","Alkoholické nápoje a tabak","10.11"
"Domácnosti zamestnancov","Alkoholické nápoje","4.88"
"Domácnosti zamestnancov","Tabak","5.23"
"Domácnosti zamestnancov","Odievanie a obuv","19.46"
"Domácnosti zamestnancov","Odievanie","13.67"
"Domácnosti zamestnancov","Obuv","5.79"
"Domácnosti zamestnancov","Bývanie, voda, elektrina, plyn a  palivá","66.79"
"Domácnosti zamestnancov","Nájomné za bývanie","4.74"
"Domácnosti zamestnancov","Pravidelná údržba obydlia","6.05"
"Domácnosti zamestnancov","Ostatné bytové služby","15.81"
"Domácnosti zamestnancov","Elektrina, plyn a iné palivá","40.2"
"Domácnosti zamestnancov","Elektrina","14.02"
"Domácnosti zamestnancov","Plyn","12.24"
"Domácnosti zamestnancov","Palivá","3.75"
"Domácnosti zamestnancov","Teplá voda a ústredné kúrenie","10.19"
"Domácnosti zamestnancov","Nábytok, bytové vybavenie a bežná údržba bytu","18.6"
"Domácnosti zamestnancov","Nábytok a bytové vybavenie","7.57"
"Domácnosti zamestnancov","Bytové textílie","0.13"
"Domácnosti zamestnancov","Ohrievacie a variace prístroje, chladničky, práčky a i.","3.81"
"Domácnosti zamestnancov","Sklo, stolový riad a dom. náradie","0.31"
"Domácnosti zamestnancov","Nástroje a zariadenie pre dom a záhradu","1.57"
"Domácnosti zamestnancov","Tovary a služby pre bežnú údržbu domácnosti","5.21"
"Domácnosti zamestnancov","Zdravie","9.99"
"Domácnosti zamestnancov","Zdravotnícke a farmaceutické výrobky a terapeutické prístroje","7.73"
"Domácnosti zamestnancov","Zdravotnícke služby poskytované mimo nemocníc","2.2"
"Domácnosti zamestnancov","Nemocničné služby","0.06"
"Domácnosti zamestnancov","Doprava","46.52"
"Domácnosti zamestnancov","Nákup dopravných prostriedkov","18.31"
"Domácnosti zamestnancov","Prevádzka prostr. osob. dopravy","21.65"
"Domácnosti zamestnancov","Dopravné služby","6.57"
"Domácnosti zamestnancov","Pošty a telekomunikácie","17.87"
"Domácnosti zamestnancov","Poštové služby","0.14"
"Domácnosti zamestnancov","Telefónne a faxové prístroje","0.07"
"Domácnosti zamestnancov","Telefónne a faxové služby","17.66"
"Domácnosti zamestnancov","Rekreácia a kultúra","24.78"
"Domácnosti zamestnancov","Zariadenia a príslušenstvo vrátane opráv","7.56"
"Domácnosti zamestnancov","Rekreačné a kultúrne služby","8.08"
"Domácnosti zamestnancov","Noviny, knihy a kancel. potreby","2.28"
"Domácnosti zamestnancov","Dovolenky s programom","6.85"
"Domácnosti zamestnancov","Vzdelávanie","2.91"
"Domácnosti zamestnancov","Hotely, kaviarne a reštaurácie","22.53"
"Domácnosti zamestnancov","Stravovanie","18.95"
"Domácnosti zamestnancov","Ubytovacie služby","3.58"
"Domácnosti zamestnancov","Rozličné tovary a služby","28.01"
"Domácnosti zamestnancov","Osobná starostlivosť","8.87"
"Domácnosti zamestnancov","Osobné predmety","1.3"
"Domácnosti zamestnancov","Sociálne služby","0.33"
"Domácnosti zamestnancov","Poistenie","16.25"
"Domácnosti zamestnancov","Fnančné služby","0.57"
"Domácnosti zamestnancov","Iné služby","0.69"
"Domácnosti zamestnancov","Ostatné hrubé výdavky","165.9"
"Domácnosti zamestnancov","Daň z príjmu","48.96"
"Domácnosti zamestnancov","Platby zdravotným poisťovniam a Sociálnej poisťovni","65.53"
"Domácnosti zamestnancov","Spotreba potravín z vlastnej  produkcie a darov","."
"Domácnosti samostatne zárobkovo činných osôb","Potraviny a nealkoholické nápoje","74.29"
"Domácnosti samostatne zárobkovo činných osôb","Potraviny","67.5"
"Domácnosti samostatne zárobkovo činných osôb","Chlieb a obilniny","11.91"
"Domácnosti samostatne zárobkovo činných osôb","Mäso","16.83"
"Domácnosti samostatne zárobkovo činných osôb","Ryby","2.08"
"Domácnosti samostatne zárobkovo činných osôb","Mlieko, syry a vajcia","13.74"
"Domácnosti samostatne zárobkovo činných osôb","Oleje a tuky","3.17"
"Domácnosti samostatne zárobkovo činných osôb","Ovocie","5.08"
"Domácnosti samostatne zárobkovo činných osôb","Zelenina, vr. zemiakov","6.56"
"Domácnosti samostatne zárobkovo činných osôb","Cukor, džem, med, sirupy, čokoláda a cukrovinky","5.24"
"Domácnosti samostatne zárobkovo činných osôb","Potravinové výrobky inde nešpecifikované","2.9"
"Domácnosti samostatne zárobkovo činných osôb","Nealkoholické nápoje","6.79"
"Domácnosti samostatne zárobkovo činných osôb","Káva,  čaj a kakao","2.68"
"Domácnosti samostatne zárobkovo činných osôb","Minerálne vody, nealkoholické nápoje a šťavy","4.11"
"Domácnosti samostatne zárobkovo činných osôb","Alkoholické nápoje a tabak","11.43"
"Domácnosti samostatne zárobkovo činných osôb","Alkoholické nápoje","5.35"
"Domácnosti samostatne zárobkovo činných osôb","Tabak","6.08"
"Domácnosti samostatne zárobkovo činných osôb","Odievanie a obuv","23.32"
"Domácnosti samostatne zárobkovo činných osôb","Odievanie","15.43"
"Domácnosti samostatne zárobkovo činných osôb","Obuv","7.88"
"Domácnosti samostatne zárobkovo činných osôb","Bývanie, voda, elektrina, plyn a  palivá","64.02"
"Domácnosti samostatne zárobkovo činných osôb","Nájomné za bývanie","6.74"
"Domácnosti samostatne zárobkovo činných osôb","Pravidelná údržba obydlia","4.35"
"Domácnosti samostatne zárobkovo činných osôb","Ostatné bytové služby","14.06"
"Domácnosti samostatne zárobkovo činných osôb","Elektrina, plyn a iné palivá","38.87"
"Domácnosti samostatne zárobkovo činných osôb","Elektrina","15.02"
"Domácnosti samostatne zárobkovo činných osôb","Plyn","12.33"
"Domácnosti samostatne zárobkovo činných osôb","Palivá","3.5"
"Domácnosti samostatne zárobkovo činných osôb","Teplá voda a ústredné kúrenie","8.03"
"Domácnosti samostatne zárobkovo činných osôb","Nábytok, bytové vybavenie a bežná údržba bytu","17.56"
"Domácnosti samostatne zárobkovo činných osôb","Nábytok a bytové vybavenie","6.82"
"Domácnosti samostatne zárobkovo činných osôb","Bytové textílie","0.17"
"Domácnosti samostatne zárobkovo činných osôb","Ohrievacie a variace prístroje, chladničky, práčky a i.","4.31"
"Domácnosti samostatne zárobkovo činných osôb","Sklo, stolový riad a dom. náradie","0.2"
"Domácnosti samostatne zárobkovo činných osôb","Nástroje a zariadenie pre dom a záhradu","1.36"
"Domácnosti samostatne zárobkovo činných osôb","Tovary a služby pre bežnú údržbu domácnosti","4.7"
"Domácnosti samostatne zárobkovo činných osôb","Zdravie","9.6"
"Domácnosti samostatne zárobkovo činných osôb","Zdravotnícke a farmaceutické výrobky a terapeutické prístroje","7.73"
"Domácnosti samostatne zárobkovo činných osôb","Zdravotnícke služby poskytované mimo nemocníc","1.83"
"Domácnosti samostatne zárobkovo činných osôb","Nemocničné služby","0.05"
"Domácnosti samostatne zárobkovo činných osôb","Doprava","58.61"
"Domácnosti samostatne zárobkovo činných osôb","Nákup dopravných prostriedkov","25.38"
"Domácnosti samostatne zárobkovo činných osôb","Prevádzka prostr. osob. dopravy","27.29"
"Domácnosti samostatne zárobkovo činných osôb","Dopravné služby","5.94"
"Domácnosti samostatne zárobkovo činných osôb","Pošty a telekomunikácie","20.87"
"Domácnosti samostatne zárobkovo činných osôb","Poštové služby","0.16"
"Domácnosti samostatne zárobkovo činných osôb","Telefónne a faxové prístroje","0.16"
"Domácnosti samostatne zárobkovo činných osôb","Telefónne a faxové služby","20.55"
"Domácnosti samostatne zárobkovo činných osôb","Rekreácia a kultúra","28.21"
"Domácnosti samostatne zárobkovo činných osôb","Zariadenia a príslušenstvo vrátane opráv","8.57"
"Domácnosti samostatne zárobkovo činných osôb","Rekreačné a kultúrne služby","9"
"Domácnosti samostatne zárobkovo činných osôb","Noviny, knihy a kancel. potreby","2.23"
"Domácnosti samostatne zárobkovo činných osôb","Dovolenky s programom","8.41"
"Domácnosti samostatne zárobkovo činných osôb","Vzdelávanie","4.09"
"Domácnosti samostatne zárobkovo činných osôb","Hotely, kaviarne a reštaurácie","23.1"
"Domácnosti samostatne zárobkovo činných osôb","Stravovanie","19.55"
"Domácnosti samostatne zárobkovo činných osôb","Ubytovacie služby","3.55"
"Domácnosti samostatne zárobkovo činných osôb","Rozličné tovary a služby","31.29"
"Domácnosti samostatne zárobkovo činných osôb","Osobná starostlivosť","8.96"
"Domácnosti samostatne zárobkovo činných osôb","Osobné predmety","1.67"
"Domácnosti samostatne zárobkovo činných osôb","Sociálne služby","0.19"
"Domácnosti samostatne zárobkovo činných osôb","Poistenie","19.37"
"Domácnosti samostatne zárobkovo činných osôb","Fnančné služby","0.47"
"Domácnosti samostatne zárobkovo činných osôb","Iné služby","0.63"
"Domácnosti samostatne zárobkovo činných osôb","Ostatné hrubé výdavky","80.49"
"Domácnosti samostatne zárobkovo činných osôb","Daň z príjmu","14.49"
"Domácnosti samostatne zárobkovo činných osôb","Platby zdravotným poisťovniam a Sociálnej poisťovni","22.19"
"Domácnosti samostatne zárobkovo činných osôb","Spotreba potravín z vlastnej  produkcie a darov","."
"Domácnosti dôchodcov","Potraviny a nealkoholické nápoje","95.35"
"Domácnosti dôchodcov","Potraviny","87.92"
"Domácnosti dôchodcov","Chlieb a obilniny","15.1"
"Domácnosti dôchodcov","Mäso","25.84"
"Domácnosti dôchodcov","Ryby","2.53"
"Domácnosti dôchodcov","Mlieko, syry a vajcia","15.26"
"Domácnosti dôchodcov","Oleje a tuky","4.79"
"Domácnosti dôchodcov","Ovocie","6.51"
"Domácnosti dôchodcov","Zelenina, vr. zemiakov","8.36"
"Domácnosti dôchodcov","Cukor, džem, med, sirupy, čokoláda a cukrovinky","5.88"
"Domácnosti dôchodcov","Potravinové výrobky inde nešpecifikované","3.66"
"Domácnosti dôchodcov","Nealkoholické nápoje","7.43"
"Domácnosti dôchodcov","Káva,  čaj a kakao","3.6"
"Domácnosti dôchodcov","Minerálne vody, nealkoholické nápoje a šťavy","3.82"
"Domácnosti dôchodcov","Alkoholické nápoje a tabak","10.3"
"Domácnosti dôchodcov","Alkoholické nápoje","5.71"
"Domácnosti dôchodcov","Tabak","4.59"
"Domácnosti dôchodcov","Odievanie a obuv","10.19"
"Domácnosti dôchodcov","Odievanie","7.16"
"Domácnosti dôchodcov","Obuv","3.03"
"Domácnosti dôchodcov","Bývanie, voda, elektrina, plyn a  palivá","87.74"
"Domácnosti dôchodcov","Nájomné za bývanie","1.71"
"Domácnosti dôchodcov","Pravidelná údržba obydlia","4.82"
"Domácnosti dôchodcov","Ostatné bytové služby","22.18"
"Domácnosti dôchodcov","Elektrina, plyn a iné palivá","59.04"
"Domácnosti dôchodcov","Elektrina","19.28"
"Domácnosti dôchodcov","Plyn","19.34"
"Domácnosti dôchodcov","Palivá","5.4"
"Domácnosti dôchodcov","Teplá voda a ústredné kúrenie","15.02"
"Domácnosti dôchodcov","Nábytok, bytové vybavenie a bežná údržba bytu","16.17"
"Domácnosti dôchodcov","Nábytok a bytové vybavenie","4.22"
"Domácnosti dôchodcov","Bytové textílie","0.13"
"Domácnosti dôchodcov","Ohrievacie a variace prístroje, chladničky, práčky a i.","3.57"
"Domácnosti dôchodcov","Sklo, stolový riad a dom. náradie","0.16"
"Domácnosti dôchodcov","Nástroje a zariadenie pre dom a záhradu","1.95"
"Domácnosti dôchodcov","Tovary a služby pre bežnú údržbu domácnosti","6.13"
"Domácnosti dôchodcov","Zdravie","18.81"
"Domácnosti dôchodcov","Zdravotnícke a farmaceutické výrobky a terapeutické prístroje","16.45"
"Domácnosti dôchodcov","Zdravotnícke služby poskytované mimo nemocníc","2.33"
"Domácnosti dôchodcov","Nemocničné služby","0.03"
"Domácnosti dôchodcov","Doprava","23.01"
"Domácnosti dôchodcov","Nákup dopravných prostriedkov","5.1"
"Domácnosti dôchodcov","Prevádzka prostr. osob. dopravy","14.81"
"Domácnosti dôchodcov","Dopravné služby","3.09"
"Domácnosti dôchodcov","Pošty a telekomunikácie","14.88"
"Domácnosti dôchodcov","Poštové služby","0.29"
"Domácnosti dôchodcov","Telefónne a faxové prístroje","0.05"
"Domácnosti dôchodcov","Telefónne a faxové služby","14.53"
"Domácnosti dôchodcov","Rekreácia a kultúra","16.73"
"Domácnosti dôchodcov","Zariadenia a príslušenstvo vrátane opráv","4"
"Domácnosti dôchodcov","Rekreačné a kultúrne služby","6.1"
"Domácnosti dôchodcov","Noviny, knihy a kancel. potreby","3.05"
"Domácnosti dôchodcov","Dovolenky s programom","3.58"
"Domácnosti dôchodcov","Vzdelávanie","0.4"
"Domácnosti dôchodcov","Hotely, kaviarne a reštaurácie","12.27"
"Domácnosti dôchodcov","Stravovanie","11"
"Domácnosti dôchodcov","Ubytovacie služby","1.27"
"Domácnosti dôchodcov","Rozličné tovary a služby","17.75"
"Domácnosti dôchodcov","Osobná starostlivosť","7.15"
"Domácnosti dôchodcov","Osobné predmety","0.89"
"Domácnosti dôchodcov","Sociálne služby","0.63"
"Domácnosti dôchodcov","Poistenie","8.42"
"Domácnosti dôchodcov","Fnančné služby","0.25"
"Domácnosti dôchodcov","Iné služby","0.41"
"Domácnosti dôchodcov","Ostatné hrubé výdavky","32.93"
"Domácnosti dôchodcov","Daň z príjmu","2.85"
"Domácnosti dôchodcov","Platby zdravotným poisťovniam a Sociálnej poisťovni","4.97"
"Domácnosti dôchodcov","Spotreba potravín z vlastnej  produkcie a darov","."
"Domácnosti ostatných","Potraviny a nealkoholické nápoje","64.79"
"Domácnosti ostatných","Potraviny","59.43"
"Domácnosti ostatných","Chlieb a obilniny","12.24"
"Domácnosti ostatných","Mäso","17.5"
"Domácnosti ostatných","Ryby","1.38"
"Domácnosti ostatných","Mlieko, syry a vajcia","10.7"
"Domácnosti ostatných","Oleje a tuky","2.88"
"Domácnosti ostatných","Ovocie","2.81"
"Domácnosti ostatných","Zelenina, vr. zemiakov","5.8"
"Domácnosti ostatných","Cukor, džem, med, sirupy, čokoláda a cukrovinky","3.54"
"Domácnosti ostatných","Potravinové výrobky inde nešpecifikované","2.58"
"Domácnosti ostatných","Nealkoholické nápoje","5.36"
"Domácnosti ostatných","Káva,  čaj a kakao","2.31"
"Domácnosti ostatných","Minerálne vody, nealkoholické nápoje a šťavy","3.06"
"Domácnosti ostatných","Alkoholické nápoje a tabak","7.78"
"Domácnosti ostatných","Alkoholické nápoje","3.01"
"Domácnosti ostatných","Tabak","4.76"
"Domácnosti ostatných","Odievanie a obuv","7.04"
"Domácnosti ostatných","Odievanie","4.34"
"Domácnosti ostatných","Obuv","2.7"
"Domácnosti ostatných","Bývanie, voda, elektrina, plyn a  palivá","69.58"
"Domácnosti ostatných","Nájomné za bývanie","9.78"
"Domácnosti ostatných","Pravidelná údržba obydlia","1.37"
"Domácnosti ostatných","Ostatné bytové služby","14.51"
"Domácnosti ostatných","Elektrina, plyn a iné palivá","43.91"
"Domácnosti ostatných","Elektrina","18.62"
"Domácnosti ostatných","Plyn","11.39"
"Domácnosti ostatných","Palivá","5.4"
"Domácnosti ostatných","Teplá voda a ústredné kúrenie","8.51"
"Domácnosti ostatných","Nábytok, bytové vybavenie a bežná údržba bytu","10.17"
"Domácnosti ostatných","Nábytok a bytové vybavenie","4.17"
"Domácnosti ostatných","Bytové textílie","0.12"
"Domácnosti ostatných","Ohrievacie a variace prístroje, chladničky, práčky a i.","1.16"
"Domácnosti ostatných","Sklo, stolový riad a dom. náradie","0.38"
"Domácnosti ostatných","Nástroje a zariadenie pre dom a záhradu","0.55"
"Domácnosti ostatných","Tovary a služby pre bežnú údržbu domácnosti","3.79"
"Domácnosti ostatných","Zdravie","10.58"
"Domácnosti ostatných","Zdravotnícke a farmaceutické výrobky a terapeutické prístroje","9.82"
"Domácnosti ostatných","Zdravotnícke služby poskytované mimo nemocníc","0.76"
"Domácnosti ostatných","Nemocničné služby","0"
"Domácnosti ostatných","Doprava","16.16"
"Domácnosti ostatných","Nákup dopravných prostriedkov","3.76"
"Domácnosti ostatných","Prevádzka prostr. osob. dopravy","9.21"
"Domácnosti ostatných","Dopravné služby","3.19"
"Domácnosti ostatných","Pošty a telekomunikácie","13.79"
"Domácnosti ostatných","Poštové služby","0.04"
"Domácnosti ostatných","Telefónne a faxové prístroje","0.07"
"Domácnosti ostatných","Telefónne a faxové služby","13.68"
"Domácnosti ostatných","Rekreácia a kultúra","9.29"
"Domácnosti ostatných","Zariadenia a príslušenstvo vrátane opráv","2.44"
"Domácnosti ostatných","Rekreačné a kultúrne služby","4.14"
"Domácnosti ostatných","Noviny, knihy a kancel. potreby","1.24"
"Domácnosti ostatných","Dovolenky s programom","1.46"
"Domácnosti ostatných","Vzdelávanie","0.94"
"Domácnosti ostatných","Hotely, kaviarne a reštaurácie","7.47"
"Domácnosti ostatných","Stravovanie","6.22"
"Domácnosti ostatných","Ubytovacie služby","1.25"
"Domácnosti ostatných","Rozličné tovary a služby","12.24"
"Domácnosti ostatných","Osobná starostlivosť","5.96"
"Domácnosti ostatných","Osobné predmety","0.19"
"Domácnosti ostatných","Sociálne služby","0.06"
"Domácnosti ostatných","Poistenie","5.79"
"Domácnosti ostatných","Fnančné služby","0.21"
"Domácnosti ostatných","Iné služby","0.04"
"Domácnosti ostatných","Ostatné hrubé výdavky","22.52"
"Domácnosti ostatných","Daň z príjmu","2.37"
"Domácnosti ostatných","Platby zdravotným poisťovniam a Sociálnej poisťovni","4.69"
"Domácnosti ostatných","Spotreba potravín z vlastnej  produkcie a darov","."
