{
  "storage": {
    "input": {
      "files": [],
      "tables": [
        {
          "source": "in.c-test.test",
          "destination": "test.csv",
          "limit": 50,
          "columns": [],
          "where_values": [],
          "where_operator": "eq"
        }
      ]
    },
    "output": {
      "files": [],
      "tables": []
    }
  },
  "parameters": {
    "index_separator": "__"
  },
  "image_parameters": {
    "syrup_url": "https://syrup.keboola.com/"
  },
  "authorization": {}
}
